{
    "cordova-plugin-whitelist": {
        "source": {
            "type": "registry",
            "id": "cordova-plugin-whitelist@1"
        },
        "is_top_level": true,
        "variables": {}
    },
    "cordova-plugin-inappbrowser": {
        "source": {
            "type": "local",
            "path": "/Users/matthewormsby/Downloads/cordova-plugin-inappbrowser-master"
        },
        "is_top_level": true,
        "variables": {}
    }
}